06610 LSMP Payerne Observations at 12Z 28 Feb 2017

-----------------------------------------------------------------------------
   PRES   HGHT   TEMP   DWPT   RELH   MIXR   DRCT   SKNT   THTA   THTE   THTV
    hPa     m      C      C      %    g/kg    deg   knot     K      K      K
-----------------------------------------------------------------------------
 1000.0     -5
  941.0    491    5.6    4.0     89   5.44    355      2  283.6  299.0  284.6
  937.0    526    4.5    4.2     98   5.53     35      2  282.8  298.4  283.8
  936.0    534    4.2    4.2    100   5.55     18      1  282.6  298.2  283.6
  935.0    543    4.2    4.1    100   5.53      0      0  282.7  298.2  283.6
  934.0    552    4.1    4.1    100   5.51    240      0  282.7  298.2  283.6
  932.0    569    4.0    3.9     99   5.46    215      4  282.8  298.1  283.7
  925.0    630    3.6    3.4     99   5.31    230      4  283.0  297.9  283.9
  924.0    639    3.6    3.4     98   5.30    225      4  283.1  298.0  284.0
  916.0    710    3.6    3.0     96   5.21    220     11  283.8  298.5  284.7
  898.0    871    5.2    1.5     77   4.77    208     27  287.0  300.8  287.9
  894.0    908    4.9    0.9     76   4.60    205     31  287.1  300.4  287.9
  891.0    935    4.6    0.5     75   4.47    206     34  287.1  300.0  287.8
  883.0   1009    4.2    1.2     81   4.75    208     40  287.4  301.1  288.2
  878.0   1055    4.2   -0.5     71   4.22    210     45  287.9  300.1  288.6
  874.0   1092    4.0    0.0     75   4.40    211     45  288.0  300.8  288.8
  850.0   1318    1.6   -0.3     87   4.42    215     47  287.8  300.7  288.6
  825.0   1558   -0.5   -1.3     94   4.24    219     55  288.1  300.4  288.8
  821.0   1597   -0.9   -1.6     95   4.16    219     57  288.0  300.2  288.8
  817.0   1636   -1.1   -2.0     94   4.06    220     58  288.2  300.1  288.9
  809.0   1714   -1.5   -2.8     91   3.86    221     58  288.6  299.9  289.3
  716.0   2673   -8.4   -8.6     98   2.80    230     58  291.2  299.7  291.7
  700.0   2850   -9.7   -9.7    100   2.63    230     60  291.7  299.7  292.2
  688.0   2983  -10.5  -10.5    100   2.51    230     65  292.3  299.9  292.7
  683.0   3039  -10.7  -12.1     89   2.22    230     67  292.6  299.5  293.1
  674.0   3141  -11.4  -12.5     92   2.18    230     70  292.9  299.7  293.3
  654.0   3372  -13.1  -13.5     97   2.07    231     70  293.6  300.0  294.0
  575.0   4339  -20.1  -21.5     89   1.20    235     70  296.4  300.3  296.6
  550.0   4667  -22.3  -23.6     89   1.04    237     70  297.6  301.0  297.8
  509.0   5232  -26.7  -27.5     93   0.79    239     70  298.9  301.6  299.0
  500.0   5360  -27.7  -29.3     86   0.68    240     70  299.2  301.5  299.3
  487.0   5548  -29.3  -31.2     84   0.58    245     68  299.5  301.5  299.6
  466.0   5862  -32.0  -34.4     79   0.45    250     78  300.0  301.5  300.1
  465.0   5877  -32.1  -34.5     79   0.44    250     79  300.0  301.5  300.1
  448.0   6141  -30.7  -33.7     75   0.50    250    100  305.0  306.7  305.1
  447.0   6157  -30.8  -33.9     74   0.49    250    101  305.1  306.8  305.2
  446.0   6173  -30.8  -34.0     74   0.49    250    101  305.2  306.9  305.3
  442.0   6237  -31.1  -34.6     71   0.46    249    101  305.6  307.3  305.7
  425.0   6514  -32.9  -36.0     74   0.42    246    101  306.8  308.3  306.9
  423.0   6547  -33.1  -37.0     68   0.38    245    101  306.9  308.3  307.0
  416.0   6665  -32.7  -39.7     50   0.29    244    101  308.9  310.0  309.0
  411.0   6750  -33.3  -42.3     40   0.23    242    101  309.2  310.1  309.3
  400.0   6940  -34.5  -44.5     36   0.18    240    101  310.1  310.8  310.1
  387.0   7170  -36.5  -46.5     35   0.15    241    102  310.4  311.0  310.4
  382.0   7259  -37.1  -49.1     28   0.11    241    102  310.8  311.2  310.8
  357.0   7722  -41.3  -48.3     47   0.13    242    104  311.2  311.7  311.2
  343.0   7992  -43.3  -58.3     18   0.04    243    104  312.1  312.2  312.1
  324.0   8373  -46.3  -61.3     17   0.03    244    106  313.0  313.2  313.0
  317.0   8518  -47.1  -60.1     21   0.04    245    106  313.9  314.0  313.9
  309.0   8686  -48.1  -63.9     14   0.02    245    107  314.8  314.9  314.8
  300.0   8880  -49.3  -68.3      9   0.01    245    111  315.8  315.8  315.8
  296.0   8968  -49.9  -69.9      8   0.01    247    112  316.1  316.2  316.1
  292.0   9057  -50.3  -69.3      9   0.01    249    114  316.8  316.8  316.8
  289.0   9124  -50.7  -69.9      8   0.01    250    115  317.1  317.1  317.1
  250.0  10060  -56.9  -78.9      5   0.00    245    109  321.4  321.4  321.4
  242.0  10264  -57.9  -81.6      3   0.00    245    111  322.9  322.9  322.9
  232.0  10529  -59.1  -85.1      2   0.00    245    105  324.9  324.9  324.9
  221.0  10831  -59.3  -87.3      2   0.00    245     98  329.2  329.2  329.2
  219.0  10888  -59.5  -87.5      2   0.00    245     97  329.7  329.7  329.7
  205.0  11297  -61.2  -89.2      1   0.00    245    105  333.3  333.3  333.3
  203.0  11358  -61.5  -89.5      1   0.00    245    103  333.8  333.8  333.8
  201.0  11419  -61.7  -88.7      2   0.00    245    100  334.4  334.4  334.4
  200.0  11450  -61.5  -89.5      1   0.00    245     99  335.2  335.2  335.2
  197.0  11544  -60.5  -88.5      1   0.00    248     94  338.3  338.3  338.3
  194.0  11641  -57.7  -86.7      1   0.00    250     89  344.2  344.2  344.2
  191.0  11739  -57.9  -86.9      1   0.00    253     83  345.4  345.4  345.4
  189.0  11806  -55.5  -85.5      1   0.00    255     80  350.3  350.3  350.3
  183.0  12012  -55.3  -84.3      2   0.00    259     81  353.9  353.9  353.9
  182.0  12047  -54.8  -84.2      2   0.00    260     82  355.2  355.2  355.2
  180.0  12118  -53.9  -83.9      1   0.00    262     77  357.9  357.9  357.9
  176.0  12264  -52.4  -82.9      1   0.00    265     68  362.6  362.6  362.6
  172.0  12413  -50.9  -81.9      1   0.00    253     57  367.5  367.5  367.5
  168.0  12566  -50.6  -81.6      1   0.00    240     47  370.5  370.5  370.5
  167.0  12605  -50.5  -81.5      1   0.00    238     48  371.3  371.3  371.3
  166.0  12644  -50.8  -81.7      1   0.00    235     49  371.5  371.5  371.5
  155.0  13089  -53.9  -83.9      1   0.00    242     53  373.5  373.5  373.5
  150.0  13300  -54.1  -83.1      2   0.00    245     54  376.7  376.7  376.7
  148.0  13386  -54.1  -84.1      1   0.00    244     55  378.1  378.1  378.1
  142.0  13651  -55.7  -83.7      2   0.00    240     58  379.8  379.8  379.8
  139.0  13788  -53.7  -83.7      1   0.00    240     51  385.6  385.7  385.6
  134.0  14021  -55.2  -84.4      2   0.00    240     39  387.0  387.0  387.0
  128.0  14312  -57.1  -85.2      2   0.00    245     39  388.7  388.7  388.7
  122.0  14617  -59.1  -86.1      2   0.00    239     46  390.4  390.4  390.4
  118.0  14825  -60.1  -87.1      2   0.00    235     51  392.3  392.3  392.3
  115.0  14986  -60.9  -87.9      2   0.00    238     54  393.8  393.8  393.8
  113.0  15096  -60.5  -87.5      2   0.00    240     56  396.6  396.6  396.6
  108.0  15379  -59.3  -86.3      2   0.00    247     58  403.9  403.9  403.9
  103.0  15675  -60.5  -87.5      2   0.00    255     59  407.1  407.1  407.1
  100.0  15860  -58.9  -86.9      2   0.00    260     60  413.6  413.7  413.6
   97.1  16044  -59.1  -86.1      2   0.00    260     63  416.8  416.8  416.8
   95.6  16143  -57.6  -85.3      2   0.00    260     64  421.5  421.5  421.5
   92.5  16351  -54.5  -83.5      2   0.00    257     53  431.7  431.7  431.7
   87.4  16714  -53.5  -82.5      2   0.01    252     33  440.7  440.8  440.7
   86.0  16816  -54.2  -83.0      2   0.00    250     27  441.3  441.3  441.3
   81.0  17195  -56.9  -84.8      2   0.00    235     29  443.4  443.5  443.4
   75.7  17623  -59.9  -86.9      2   0.00    249     35  445.8  445.8  445.8
   70.0  18110  -60.9  -86.9      2   0.00    265     43  453.8  453.8  453.8
   64.9  18577  -63.1  -88.1      2   0.00    263     45  458.9  458.9  458.9
   58.0  19270  -62.2  -88.0      2   0.00    260     49  475.9  475.9  475.9
   56.1  19476  -61.9  -87.9      2   0.00    273     38  481.1  481.1  481.1
   55.0  19599  -58.4  -86.0      2   0.00    280     31  492.0  492.0  492.0
   54.8  19622  -57.7  -85.7      2   0.00    280     30  494.0  494.0  494.0
   53.0  19833  -56.8  -83.8      2   0.01    275     17  500.9  500.9  500.9
   52.9  19845  -56.7  -83.7      2   0.01    275     17  501.3  501.3  501.3
   50.0  20200  -59.3  -84.3      3   0.01    265     17  503.3  503.4  503.3
   49.0  20326  -60.5  -85.0      3   0.01    260     17  503.4  503.4  503.4
   48.0  20454  -61.7  -85.7      3   0.01    267     23  503.5  503.5  503.5
   45.1  20839  -62.9  -86.9      3   0.00    289     38  509.6  509.7  509.6
   45.0  20852  -62.8  -86.9      3   0.00    290     39  510.1  510.1  510.1
   42.2  21249  -61.1  -86.1      2   0.01    304     21  523.9  523.9  523.9
   42.0  21278  -61.3  -86.2      2   0.01    305     19  524.1  524.2  524.1
   41.0  21426  -62.1  -86.8      2   0.01    290     10  525.6  525.6  525.6
   36.0  22221  -66.9  -90.0      3   0.00    255     27  533.2  533.2  533.2
   35.8  22255  -67.1  -90.1      3   0.00    256     28  533.5  533.5  533.5
   33.0  22751  -65.5  -89.0      3   0.00    270     43  550.2  550.3  550.2
   30.0  23330  -63.7  -87.7      3   0.01    275     45  570.4  570.5  570.4
   27.2  23933  -62.3  -86.3      3   0.01    286     43  590.5  590.6  590.5
   25.0  24448  -63.6  -86.7      3   0.01    295     41  601.1  601.2  601.1
   20.6  25631  -66.7  -87.7      4   0.01    278     44  626.0  626.1  626.0
   20.0  25810  -66.1  -88.1      3   0.01    275     45  633.1  633.2  633.1
   19.0  26122  -64.9  -87.9      3   0.01    274     46  646.2  646.3  646.2
   17.0  26799  -65.5  -87.5      3   0.01    273     48  665.1  665.3  665.1
   14.3  27841  -69.3  -88.3      5   0.01    270     51  686.0  686.2  686.1
   13.0  28412  -67.5  -87.5      4   0.01    269     53  711.2  711.4  711.2
   12.5  28649  -65.1  -88.1      3   0.01    268     54  727.6  727.8  727.6
   11.5  29157  -65.5  -86.5      4   0.02    267     56  743.7  744.0  743.7
   10.5  29715  -61.7  -84.7      3   0.03    266     57  777.3  777.6  777.3
   10.0  30020  -56.9  -81.9      3   0.05    265     58  806.1  806.7  806.1
    9.5  30346  -54.7  -80.7      3   0.06    263     60  826.3  827.1  826.4
    8.0  31439  -57.1  -80.3      4   0.08    255     66  858.3  859.3  858.3
    7.9  31519  -57.3  -80.3      4   0.08    256     67  860.7  861.7  860.7
    6.4  32864  -52.5  -78.5      3   0.13    264     92  934.4  936.2  934.4
    6.0  33280  -53.5  -78.5      3   0.14    267     99  947.4  949.4  947.5
    5.8  33501  -48.1  -77.1      2   0.18    268    103  980.2  982.8  980.3
    5.5  33851  -47.4  -76.4      2   0.22    270    109  998.4 1001.6  998.6
    5.4  33972  -47.1  -76.1      2   0.23               1004.8 1008.2 1005.0
    5.1  34358  -38.7  -71.7      2   0.47               1059.3 1066.4 1059.6
    4.6  35069  -37.1  -69.1      2   0.75               1098.5 1110.0 1099.0
    4.5  35221  -34.1  -69.1      2   0.77               1119.4 1131.5 1120.0

Station information and sounding indices

                         Station identifier: LSMP
                             Station number: 6610
                           Observation time: 170228/1200
                           Station latitude: 46.81
                          Station longitude: 6.95
                          Station elevation: 491.0
                            Showalter index: 0.82
                               Lifted index: 1.86
    LIFT computed using virtual temperature: 1.87
                                SWEAT index: 395.00
                                    K index: 29.00
                         Cross totals index: 27.40
                      Vertical totals index: 29.30
                        Totals totals index: 56.70
      Convective Available Potential Energy: 0.00
             CAPE using virtual temperature: 0.00
                      Convective Inhibition: 0.00
             CINS using virtual temperature: 0.00
                     Bulk Richardson Number: 0.00
          Bulk Richardson Number using CAPV: 0.00
  Temp [K] of the Lifted Condensation Level: 275.33
Pres [hPa] of the Lifted Condensation Level: 888.92
     Mean mixed layer potential temperature: 284.77
              Mean mixed layer mixing ratio: 5.07
              1000 hPa to 500 hPa thickness: 5365.00
Precipitable water [mm] for entire sounding: 13.53

Description of the data columns or sounding indices.

[ Close this window ] [ Select another map ]
-------------------------------------------------------------------------------
Interested in graduate studies in atmospheric science? Check out our program at
the University of Wyoming
-------------------------------------------------------------------------------
Questions about the weather data provided by this site can be addressed to
Larry Oolman (ldoolman@uwyo.edu)
-------------------------------------------------------------------------------
